edaplayground/result/regression_logs/bridge_ahb_apb4_random_test_seed1.log
QuestaSim-64 qrun 2025.2 Utility 2025.05 May 31 2025
Start time: 06:44:28 on Jul 15,2026
qrun -clean -batch -access=rw+/. -uvmhome uvm-1.2 -timescale 1ns/1ns -mfcu "+define+BRIDGE_RTL_ASSERTIONS" -coverage -sv_seed 1 design.sv testbench.sv -voptargs="+acc=npr" -do "transcript on
onbreak {quit -f}
onerror {quit -code 1 -f}
onfinish stop
puts "RUN_BASH_DO_VERSION: single_entry_rtl_assertions_vcover"
if {[catch {coverage save -onexit bridge.ucdb} cov_save_err]} {
  puts "COVERAGE_SAVE_ONEXIT_WARNING: $cov_save_err"
}
run 2000000ns
if {[catch {coverage save bridge.ucdb} cov_save_now_err]} {
  puts "COVERAGE_SAVE_NOW_WARNING: $cov_save_now_err"
}
if {[catch {coverage report -details -cvg -file bridge_cvg_detail.rpt} cov_err]} {
  puts "COVERGROUP_COVERAGE_REPORT_WARNING: $cov_err"
}
if {[catch {coverage report -details -assert -file bridge_assert_detail.rpt} assert_cov_err]} {
  puts "ASSERTION_COVERAGE_REPORT_WARNING: $assert_cov_err"
}
if {[catch {coverage report -details -codeAll -assert -file bridge_code_assert_detail.rpt} code_cov_err]} {
  puts "CODE_ASSERTION_COVERAGE_REPORT_WARNING: $code_cov_err"
}
puts "RUN_BASH_DO_DONE"
quit -f" "+UVM_TESTNAME=bridge_ahb_apb4_random_test" "+UVM_NO_RELNOTES" "+NO_COLOR_MISMATCH" "+NUM_ITEMS=500" "+MAX_ITEMS=10000" "+APB_MAX_WAIT=3" "+APB_ERR_PERCENT=15" "+STRICT_SPEC_COVERAGE" 
** Note: (qrun-220) 'modelsim.ini' is used as the ini file.
Creating library 'qrun.out/work'.
Mapping library 'mtiUvm' to 'qrun.out/work'.
** Note: (vmap-220) 'modelsim.ini' is used as the ini file.
QuestaSim-64 vlog 2025.2 Compiler 2025.05 May 31 2025
Start time: 06:44:28 on Jul 15,2026
vlog -timescale 1ns/1ns -mfcu "+define+BRIDGE_RTL_ASSERTIONS" -ccflags "-Wno-missing-declarations" -ccflags "-Wno-maybe-uninitialized" -ccflags "-Wno-return-type" -ccflags "-DQUESTA" /usr/share/questa/questasim/verilog_src/uvm-1.2/src/dpi/uvm_dpi.cc /usr/share/questa/questasim/verilog_src/uvm-1.2/src/uvm_pkg.sv /usr/share/questa/questasim/verilog_src/questa_uvm_pkg-1.2/src/questa_uvm_pkg.sv design.sv testbench.sv -work qrun.out/work "+incdir+/usr/share/questa/questasim/verilog_src/uvm-1.2/src" -statslog qrun.out/stats_log -csession=incr 
** Note: (vlog-220) 'modelsim.ini' is used as the ini file.
-- Compiling package uvm_pkg (uvm-1.2 Built-in)
-- Compiling package questa_uvm_pkg
-- Importing package uvm_pkg (uvm-1.2 Built-in)
-- Compiling package bridge_pkg
-- Compiling module ahb_request_validator
-- Importing package bridge_pkg
-- Compiling module bridge_7state_core
-- Compiling module Bridge_Top
-- Compiling interface ahb_if
-- Compiling interface apb_if
-- Compiling package bridge_uvm_pkg
-- Compiling module bridge_assertions
-- Compiling package uvm_pkg_sv_unit
-- Importing package uvm_pkg (uvm-1.2 Built-in)
-- Importing package bridge_uvm_pkg
-- Compiling module tb_top

Top level modules:
	tb_top
** Note: (vlog-7082) For C/C++ auto compile, choosing compiler /usr/bin/g++ set from the PATH environment variable.
-- Compiling DPI/PLI C++ file /usr/share/questa/questasim/verilog_src/uvm-1.2/src/dpi/uvm_dpi.cc
End time: 06:44:32 on Jul 15,2026, Elapsed time: 0:00:04
Errors: 0, Warnings: 0
QuestaSim-64 vopt 2025.2 Compiler 2025.05 May 31 2025
** Warning: (vopt-10587) Some optimizations are turned off because the +acc switch is in effect. This will cause your simulation to run slowly. Please use -access/-debug to maintain needed visibility. The +acc switch would be deprecated in a future release.
Start time: 06:44:32 on Jul 15,2026
vopt -access=rw+/. -timescale 1ns/1ns -mfcu "+acc=npr" -findtoplevels qrun.out/work+2+ -work qrun.out/work -statslog qrun.out/stats_log -csession=incr -o qrun_opt -csessionid=3 
** Note: (vopt-220) 'modelsim.ini' is used as the ini file.

Top level modules:
	tb_top

Analyzing design...
-- Loading module tb_top
-- Loading package questa_uvm_pkg
-- Loading interface ahb_if
-- Loading interface apb_if
-- Loading module Bridge_Top
-- Importing package bridge_pkg
-- Loading module ahb_request_validator
-- Loading module bridge_7state_core
-- Loading module bridge_assertions
Optimizing 14 design-units (inlining 0/7 module instances):
-- Optimizing package uvm_pkg (uvm-1.2 Built-in)(fast)
-- Optimizing package questa_uvm_pkg(fast)
-- Optimizing package bridge_uvm_pkg(fast)
-- Optimizing package uvm_pkg_sv_unit(fast)
-- Optimizing package bridge_pkg(fast)
-- Optimizing module bridge_assertions(fast)
-- Optimizing module bridge_7state_core(fast)
-- Optimizing module tb_top(fast)
-- Optimizing module ahb_request_validator(fast)
-- Optimizing module Bridge_Top(fast)
-- Optimizing interface ahb_if(fast__2)
-- Optimizing interface apb_if(fast__2)
-- Optimizing interface apb_if(fast)
-- Optimizing interface ahb_if(fast)
Optimized design name is qrun_opt
End time: 06:44:41 on Jul 15,2026, Elapsed time: 0:00:09
Errors: 0, Warnings: 1
# ** Note: (vsim-220) 'modelsim.ini' is used as the ini file.
# vsim -batch -sv_seed 1 "+UVM_TESTNAME=bridge_ahb_apb4_random_test" "+UVM_NO_RELNOTES" "+NO_COLOR_MISMATCH" "+NUM_ITEMS=500" "+MAX_ITEMS=10000" "+APB_MAX_WAIT=3" "+APB_ERR_PERCENT=15" "+STRICT_SPEC_COVERAGE" -lib qrun.out/work -do "coverage save -onexit bridge_ahb_apb4_random_test_$Sv_Seed.ucdb" -do "transcript on
# onbreak {quit -f}
# onerror {quit -code 1 -f}
# onfinish stop
# puts "RUN_BASH_DO_VERSION: single_entry_rtl_assertions_vcover"
# if {[catch {coverage save -onexit bridge.ucdb} cov_save_err]} {
#   puts "COVERAGE_SAVE_ONEXIT_WARNING: $cov_save_err"
# }
# run 2000000ns
# if {[catch {coverage save bridge.ucdb} cov_save_now_err]} {
#   puts "COVERAGE_SAVE_NOW_WARNING: $cov_save_now_err"
# }
# if {[catch {coverage report -details -cvg -file bridge_cvg_detail.rpt} cov_err]} {
#   puts "COVERGROUP_COVERAGE_REPORT_WARNING: $cov_err"
# }
# if {[catch {coverage report -details -assert -file bridge_assert_detail.rpt} assert_cov_err]} {
#   puts "ASSERTION_COVERAGE_REPORT_WARNING: $assert_cov_err"
# }
# if {[catch {coverage report -details -codeAll -assert -file bridge_code_assert_detail.rpt} code_cov_err]} {
#   puts "CODE_ASSERTION_COVERAGE_REPORT_WARNING: $code_cov_err"
# }
# puts "RUN_BASH_DO_DONE"
# quit -f" -statslog qrun.out/stats_log qrun_opt -appendlog -l qrun.log 
# Start time: 06:44:42 on Jul 15,2026
# Loading /tmp/root@0eb8d086d2a4_dpi_43/linux_x86_64_gcc-11/export_tramp.so
# //  Questa Sim-64
# //  Version 2025.2 linux_x86_64 May 31 2025
# //
# // Unpublished work. Copyright 2025 Siemens
# //
# // This material contains trade secrets or otherwise confidential information
# // owned by Siemens Industry Software Inc. or its affiliates (collectively,
# // "SISW"), or its licensors. Access to and use of this information is strictly
# // limited as set forth in the Customer's applicable agreements with SISW.
# //
# // This material may not be copied, distributed, or otherwise disclosed outside
# // of the Customer's facilities without the express written permission of SISW,
# // and may not be used in any way not expressly authorized by SISW.
# //
# Loading sv_std.std
# Loading work.ahb_if(fast)
# Loading work.apb_if(fast)
# Loading work.uvm_pkg(fast)
# Loading work.bridge_uvm_pkg(fast)
# Loading work.uvm_pkg_sv_unit(fast)
# Loading work.questa_uvm_pkg(fast)
# Loading work.tb_top(fast)
# Loading work.ahb_if(fast__2)
# Loading work.apb_if(fast__2)
# Loading work.bridge_pkg(fast)
# Loading work.Bridge_Top(fast)
# Loading work.ahb_request_validator(fast)
# Loading work.bridge_7state_core(fast)
# Loading work.bridge_assertions(fast)
# ** Note: (vsim-7082) For C/C++ auto compile, choosing compiler /usr/bin/g++ set from the PATH environment variable.
# Compiling /tmp/root@0eb8d086d2a4_dpi_43/linux_x86_64_gcc-11/exportwrapper.c
# Loading /tmp/root@0eb8d086d2a4_dpi_43/linux_x86_64_gcc-11/vsim_auto_compile.so
RUN_BASH_DO_VERSION: single_entry_rtl_assertions_vcover
# 
# coverage save -onexit bridge_ahb_apb4_random_test_$Sv_Seed.ucdb
# transcript on
# onbreak {quit -f}
# onerror {quit -code 1 -f}
# onfinish stop
# puts "RUN_BASH_DO_VERSION: single_entry_rtl_assertions_vcover"
# if {[catch {coverage save -onexit bridge.ucdb} cov_save_err]} {
#   puts "COVERAGE_SAVE_ONEXIT_WARNING: $cov_save_err"
# }
# run 2000000ns
# UVM_INFO /usr/share/questa/questasim/verilog_src/questa_uvm_pkg-1.2/src/questa_uvm_pkg.sv(277) @ 0: reporter [Questa UVM] QUESTA_UVM-1.2.3
# UVM_INFO /usr/share/questa/questasim/verilog_src/questa_uvm_pkg-1.2/src/questa_uvm_pkg.sv(278) @ 0: reporter [Questa UVM]  questa_uvm::init(+struct)
# UVM_INFO @ 0: reporter [RNTST] Running test bridge_ahb_apb4_random_test...
# UVM_INFO testbench.sv(2450) @ 0: uvm_test_top [TEST] Starting ahb_spec_random_seq with num_items=500 max_items=10000
# UVM_INFO testbench.sv(754) @ 105000: uvm_test_top.env.ahb.monitor [AHB_MON] hsel=1 hwrite=0 htrans=11 hsize=010 hburst=000 hprot=0101 hmastlock=0 hreadyin=1 haddr=0xd48dbd6d hwdata=0x00000000 valid=0 error=1 exp_pselx=000
# UVM_INFO testbench.sv(754) @ 345000: uvm_test_top.env.ahb.monitor [AHB_MON] hsel=1 hwrite=1 htrans=11 hsize=010 hburst=100 hprot=1101 hmastlock=0 hreadyin=1 haddr=0x49305624 hwdata=0x00000000 valid=0 error=1 exp_pselx=000
# UVM_INFO testbench.sv(754) @ 475000: uvm_test_top.env.ahb.monitor [AHB_MON] hsel=1 hwrite=0 htrans=11 hsize=010 hburst=000 hprot=1010 hmastlock=1 hreadyin=1 haddr=0x860e60b5 hwdata=0x00000000 valid=0 error=1 exp_pselx=010
# UVM_INFO testbench.sv(754) @ 545000: uvm_test_top.env.ahb.monitor [AHB_MON] hsel=1 hwrite=0 htrans=10 hsize=010 hburst=000 hprot=1000 hmastlock=0 hreadyin=1 haddr=0xf2bd2b50 hwdata=0x00000000 valid=0 error=1 exp_pselx=000
# UVM_INFO testbench.sv(754) @ 745000: uvm_test_top.env.ahb.monitor [AHB_MON] hsel=1 hwrite=1 htrans=11 hsize=010 hburst=001 hprot=1101 hmastlock=0 hreadyin=1 haddr=0x491425de hwdata=0x00000000 valid=0 error=1 exp_pselx=000
# UVM_INFO testbench.sv(754) @ 805000: uvm_test_top.env.ahb.monitor [AHB_MON] hsel=1 hwrite=0 htrans=10 hsize=010 hburst=010 hprot=1010 hmastlock=0 hreadyin=1 haddr=0x88000000 hwdata=0x00000000 valid=1 error=0 exp_pselx=100
# UVM_INFO testbench.sv(843) @ 815000: uvm_test_top.env.apb.monitor [APB_MON] phase=APB_SETUP pwrite=0 pselx=100 penable=0 pready=1 pslverr=0 paddr=0x88000000 pwdata=0x00000000 prdata=0x1b0cb843 pstrb=0000 pprot=101
# UVM_INFO testbench.sv(843) @ 825000: uvm_test_top.env.apb.monitor [APB_MON] phase=APB_ENABLE pwrite=0 pselx=100 penable=1 pready=1 pslverr=0 paddr=0x88000000 pwdata=0x00000000 prdata=0x1b0cb843 pstrb=0000 pprot=101
# UVM_INFO testbench.sv(754) @ 885000: uvm_test_top.env.ahb.monitor [AHB_MON] hsel=1 hwrite=1 htrans=11 hsize=010 hburst=011 hprot=0011 hmastlock=0 hreadyin=1 haddr=0x86fc8b2b hwdata=0x00000000 valid=0 error=1 exp_pselx=010
# UVM_INFO testbench.sv(754) @ 945000: uvm_test_top.env.ahb.monitor [AHB_MON] hsel=1 hwrite=0 htrans=10 hsize=010 hburst=101 hprot=1011 hmastlock=0 hreadyin=1 haddr=0x8b9d7f8a hwdata=0x00000000 valid=0 error=1 exp_pselx=100
# UVM_INFO testbench.sv(754) @ 1015000: uvm_test_top.env.ahb.monitor [AHB_MON] hsel=1 hwrite=1 htrans=11 hsize=010 hburst=001 hprot=0011 hmastlock=0 hreadyin=1 haddr=0x82b6fdfd hwdata=0x00000000 valid=0 error=1 exp_pselx=001
# UVM_INFO testbench.sv(754) @ 1085000: uvm_test_top.env.ahb.monitor [AHB_MON] hsel=1 hwrite=0 htrans=11 hsize=010 hburst=001 hprot=1110 hmastlock=0 hreadyin=1 haddr=0x825cb660 hwdata=0x00000000 valid=1 error=0 exp_pselx=001
# UVM_INFO testbench.sv(843) @ 1095000: uvm_test_top.env.apb.monitor [APB_MON] phase=APB_SETUP pwrite=0 pselx=001 penable=0 pready=1 pslverr=0 paddr=0x825cb660 pwdata=0x00000000 prdata=0x0928eb50 pstrb=0000 pprot=101
# UVM_INFO testbench.sv(843) @ 1105000: uvm_test_top.env.apb.monitor [APB_MON] phase=APB_ENABLE pwrite=0 pselx=001 penable=1 pready=0 pslverr=0 paddr=0x825cb660 pwdata=0x00000000 prdata=0x0928eb50 pstrb=0000 pprot=101
# UVM_INFO testbench.sv(843) @ 1115000: uvm_test_top.env.apb.monitor [APB_MON] phase=APB_ENABLE pwrite=0 pselx=001 penable=1 pready=0 pslverr=0 paddr=0x825cb660 pwdata=0x00000000 prdata=0x0928eb50 pstrb=0000 pprot=101
# UVM_INFO testbench.sv(843) @ 1125000: uvm_test_top.env.apb.monitor [APB_MON] phase=APB_ENABLE pwrite=0 pselx=001 penable=1 pready=0 pslverr=0 paddr=0x825cb660 pwdata=0x00000000 prdata=0x0928eb50 pstrb=0000 pprot=101
# UVM_INFO testbench.sv(843) @ 1135000: uvm_test_top.env.apb.monitor [APB_MON] phase=APB_ENABLE pwrite=0 pselx=001 penable=1 pready=1 pslverr=1 paddr=0x825cb660 pwdata=0x00000000 prdata=0x0928eb50 pstrb=0000 pprot=101
# UVM_INFO testbench.sv(754) @ 1175000: uvm_test_top.env.ahb.monitor [AHB_MON] hsel=1 hwrite=0 htrans=10 hsize=010 hburst=110 hprot=1001 hmastlock=0 hreadyin=1 haddr=0x826972c8 hwdata=0x00000000 valid=1 error=0 exp_pselx=001
# UVM_INFO testbench.sv(843) @ 1185000: uvm_test_top.env.apb.monitor [APB_MON] phase=APB_SETUP pwrite=0 pselx=001 penable=0 pready=1 pslverr=0 paddr=0x826972c8 pwdata=0x00000000 prdata=0xdbdd1131 pstrb=0000 pprot=000
# UVM_INFO testbench.sv(843) @ 1195000: uvm_test_top.env.apb.monitor [APB_MON] phase=APB_ENABLE pwrite=0 pselx=001 penable=1 pready=0 pslverr=0 paddr=0x826972c8 pwdata=0x00000000 prdata=0xdbdd1131 pstrb=0000 pprot=000
# UVM_INFO testbench.sv(843) @ 1205000: uvm_test_top.env.apb.monitor [APB_MON] phase=APB_ENABLE pwrite=0 pselx=001 penable=1 pready=1 pslverr=0 paddr=0x826972c8 pwdata=0x00000000 prdata=0xdbdd1131 pstrb=0000 pprot=000
# UVM_INFO testbench.sv(754) @ 1315000: uvm_test_top.env.ahb.monitor [AHB_MON] hsel=1 hwrite=0 htrans=11 hsize=010 hburst=100 hprot=0001 hmastlock=0 hreadyin=1 haddr=0x83fb1fb8 hwdata=0x00000000 valid=1 error=0 exp_pselx=001
# UVM_INFO testbench.sv(843) @ 1325000: uvm_test_top.env.apb.monitor [APB_MON] phase=APB_SETUP pwrite=0 pselx=001 penable=0 pready=1 pslverr=0 paddr=0x83fb1fb8 pwdata=0x00000000 prdata=0x0f7f8234 pstrb=0000 pprot=000
# UVM_INFO testbench.sv(843) @ 1335000: uvm_test_top.env.apb.monitor [APB_MON] phase=APB_ENABLE pwrite=0 pselx=001 penable=1 pready=0 pslverr=0 paddr=0x83fb1fb8 pwdata=0x00000000 prdata=0x0f7f8234 pstrb=0000 pprot=000
# UVM_INFO testbench.sv(843) @ 1345000: uvm_test_top.env.apb.monitor [APB_MON] phase=APB_ENABLE pwrite=0 pselx=001 penable=1 pready=0 pslverr=0 paddr=0x83fb1fb8 pwdata=0x00000000 prdata=0x0f7f8234 pstrb=0000 pprot=000
# UVM_INFO testbench.sv(843) @ 1355000: uvm_test_top.env.apb.monitor [APB_MON] phase=APB_ENABLE pwrite=0 pselx=001 penable=1 pready=0 pslverr=0 paddr=0x83fb1fb8 pwdata=0x00000000 prdata=0x0f7f8234 pstrb=0000 pprot=000
# UVM_INFO testbench.sv(843) @ 1365000: uvm_test_top.env.apb.monitor [APB_MON] phase=APB_ENABLE pwrite=0 pselx=001 penable=1 pready=1 pslverr=0 paddr=0x83fb1fb8 pwdata=0x00000000 prdata=0x0f7f8234 pstrb=0000 pprot=000
# UVM_INFO testbench.sv(754) @ 1445000: uvm_test_top.env.ahb.monitor [AHB_MON] hsel=1 hwrite=0 htrans=11 hsize=010 hburst=000 hprot=0011 hmastlock=0 hreadyin=1 haddr=0xc06b7682 hwdata=0x00000000 valid=0 error=1 exp_pselx=000
# UVM_INFO testbench.sv(710) @ 1515000: uvm_test_top.env.ahb.monitor [AHB_MON] hsel=1 hwrite=1 htrans=10 hsize=010 hburst=010 hprot=0000 hmastlock=0 hreadyin=1 haddr=0x842535a8 hwdata=0x618ad3d9 valid=1 error=0 exp_pselx=010
# UVM_INFO testbench.sv(843) @ 1525000: uvm_test_top.env.apb.monitor [APB_MON] phase=APB_SETUP pwrite=1 pselx=010 penable=0 pready=1 pslverr=0 paddr=0x842535a8 pwdata=0x618ad3d9 prdata=0xba007a90 pstrb=1111 pprot=100
# UVM_INFO testbench.sv(843) @ 1535000: uvm_test_top.env.apb.monitor [APB_MON] phase=APB_ENABLE pwrite=1 pselx=010 penable=1 pready=0 pslverr=0 paddr=0x842535a8 pwdata=0x618ad3d9 prdata=0xba007a90 pstrb=1111 pprot=100
# UVM_INFO testbench.sv(843) @ 1545000: uvm_test_top.env.apb.monitor [APB_MON] phase=APB_ENABLE pwrite=1 pselx=010 penable=1 pready=0 pslverr=0 paddr=0x842535a8 pwdata=0x618ad3d9 prdata=0xba007a90 pstrb=1111 pprot=100
# UVM_INFO testbench.sv(843) @ 1555000: uvm_test_top.env.apb.monitor [APB_MON] phase=APB_ENABLE pwrite=1 pselx=010 penable=1 pready=1 pslverr=0 paddr=0x842535a8 pwdata=0x618ad3d9 prdata=0xba007a90 pstrb=1111 pprot=100
# UVM_INFO testbench.sv(754) @ 1725000: uvm_test_top.env.ahb.monitor [AHB_MON] hsel=1 hwrite=0 htrans=10 hsize=010 hburst=100 hprot=1111 hmastlock=0 hreadyin=1 haddr=0x84ac7b2a hwdata=0x00000000 valid=0 error=1 exp_pselx=010
# UVM_INFO testbench.sv(710) @ 2185000: uvm_test_top.env.ahb.monitor [AHB_MON] hsel=1 hwrite=1 htrans=11 hsize=010 hburst=100 hprot=0001 hmastlock=0 hreadyin=1 haddr=0x877d80a8 hwdata=0x84b2eb12 valid=1 error=0 exp_pselx=010
# UVM_INFO testbench.sv(843) @ 2195000: uvm_test_top.env.apb.monitor [APB_MON] phase=APB_SETUP pwrite=1 pselx=010 penable=0 pready=1 pslverr=0 paddr=0x877d80a8 pwdata=0x84b2eb12 prdata=0xbb6a1072 pstrb=1111 pprot=000
# UVM_INFO testbench.sv(843) @ 2205000: uvm_test_top.env.apb.monitor [APB_MON] phase=APB_ENABLE pwrite=1 pselx=010 penable=1 pready=0 pslverr=0 paddr=0x877d80a8 pwdata=0x84b2eb12 prdata=0xbb6a1072 pstrb=1111 pprot=000
# UVM_INFO testbench.sv(843) @ 2215000: uvm_test_top.env.apb.monitor [APB_MON] phase=APB_ENABLE pwrite=1 pselx=010 penable=1 pready=0 pslverr=0 paddr=0x877d80a8 pwdata=0x84b2eb12 prdata=0xbb6a1072 pstrb=1111 pprot=000
# UVM_INFO testbench.sv(843) @ 2225000: uvm_test_top.env.apb.monitor [APB_MON] phase=APB_ENABLE pwrite=1 pselx=010 penable=1 pready=1 pslverr=0 paddr=0x877d80a8 pwdata=0x84b2eb12 prdata=0xbb6a1072 pstrb=1111 pprot=000
# UVM_INFO testbench.sv(710) @ 2365000: uvm_test_top.env.ahb.monitor [AHB_MON] hsel=1 hwrite=1 htrans=11 hsize=010 hburst=100 hprot=0011 hmastlock=0 hreadyin=1 haddr=0x81dca2d0 hwdata=0x9f10a3a6 valid=1 error=0 exp_pselx=001
# UVM_INFO testbench.sv(843) @ 2375000: uvm_test_top.env.apb.monitor [APB_MON] phase=APB_SETUP pwrite=1 pselx=001 penable=0 pready=1 pslverr=0 paddr=0x81dca2d0 pwdata=0x9f10a3a6 prdata=0x7f523fda pstrb=1111 pprot=001
# UVM_INFO testbench.sv(843) @ 2385000: uvm_test_top.env.apb.monitor [APB_MON] phase=APB_ENABLE pwrite=1 pselx=001 penable=1 pready=0 pslverr=0 paddr=0x81dca2d0 pwdata=0x9f10a3a6 prdata=0x7f523fda pstrb=1111 pprot=001
# UVM_INFO testbench.sv(843) @ 2395000: uvm_test_top.env.apb.monitor [APB_MON] phase=APB_ENABLE pwrite=1 pselx=001 penable=1 pready=1 pslverr=0 paddr=0x81dca2d0 pwdata=0x9f10a3a6 prdata=0x7f523fda pstrb=1111 pprot=001
# UVM_INFO testbench.sv(754) @ 2465000: uvm_test_top.env.ahb.monitor [AHB_MON] hsel=1 hwrite=1 htrans=11 hsize=010 hburst=010 hprot=0000 hmastlock=0 hreadyin=1 haddr=0x80fcf64f hwdata=0x00000000 valid=0 error=1 exp_pselx=001
# UVM_INFO testbench.sv(754) @ 2545000: uvm_test_top.env.ahb.monitor [AHB_MON] hsel=1 hwrite=1 htrans=10 hsize=011 hburst=000 hprot=1011 hmastlock=0 hreadyin=1 haddr=0x396397c5 hwdata=0x00000000 valid=0 error=1 exp_pselx=000
# UVM_INFO testbench.sv(754) @ 2605000: uvm_test_top.env.ahb.monitor [AHB_MON] hsel=1 hwrite=1 htrans=11 hsize=010 hburst=100 hprot=0011 hmastlock=0 hreadyin=1 haddr=0x848a6ec9 hwdata=0x00000000 valid=0 error=1 exp_pselx=010
# UVM_INFO testbench.sv(754) @ 2695000: uvm_test_top.env.ahb.monitor [AHB_MON] hsel=1 hwrite=0 htrans=11 hsize=010 hburst=100 hprot=0011 hmastlock=0 hreadyin=1 haddr=0x7ffffffc hwdata=0x00000000 valid=0 error=1 exp_pselx=000
# UVM_INFO testbench.sv(754) @ 2825000: uvm_test_top.env.ahb.monitor [AHB_MON] hsel=1 hwrite=0 htrans=10 hsize=010 hburst=001 hprot=0100 hmastlock=0 hreadyin=1 haddr=0x8468b51e hwdata=0x00000000 valid=0 error=1 exp_pselx=010
# UVM_INFO testbench.sv(754) @ 2895000: uvm_test_top.env.ahb.monitor [AHB_MON] hsel=1 hwrite=0 htrans=10 hsize=010 hburst=110 hprot=1001 hmastlock=0 hreadyin=1 haddr=0x24d53266 hwdata=0x00000000 valid=0 error=1 exp_pselx=000
# UVM_INFO testbench.sv(710) @ 2985000: uvm_test_top.env.ahb.monitor [AHB_MON] hsel=1 hwrite=1 htrans=10 hsize=010 hburst=010 hprot=0001 hmastlock=0 hreadyin=1 haddr=0x81bd5cf4 hwdata=0x715c90d9 valid=1 error=0 exp_pselx=001
# UVM_INFO testbench.sv(843) @ 2995000: uvm_test_top.env.apb.monitor [APB_MON] phase=APB_SETUP pwrite=1 pselx=001 penable=0 pready=1 pslverr=0 paddr=0x81bd5cf4 pwdata=0x715c90d9 prdata=0xc8534804 pstrb=1111 pprot=000
# UVM_INFO testbench.sv(843) @ 3005000: uvm_test_top.env.apb.monitor [APB_MON] phase=APB_ENABLE pwrite=1 pselx=001 penable=1 pready=0 pslverr=0 paddr=0x81bd5cf4 pwdata=0x715c90d9 prdata=0xc8534804 pstrb=1111 pprot=000
# UVM_INFO testbench.sv(843) @ 3015000: uvm_test_top.env.apb.monitor [APB_MON] phase=APB_ENABLE pwrite=1 pselx=001 penable=1 pready=0 pslverr=0 paddr=0x81bd5cf4 pwdata=0x715c90d9 prdata=0xc8534804 pstrb=1111 pprot=000
# UVM_INFO testbench.sv(843) @ 3025000: uvm_test_top.env.apb.monitor [APB_MON] phase=APB_ENABLE pwrite=1 pselx=001 penable=1 pready=1 pslverr=0 paddr=0x81bd5cf4 pwdata=0x715c90d9 prdata=0xc8534804 pstrb=1111 pprot=000
# UVM_INFO testbench.sv(754) @ 3095000: uvm_test_top.env.ahb.monitor [AHB_MON] hsel=1 hwrite=0 htrans=10 hsize=010 hburst=000 hprot=0010 hmastlock=0 hreadyin=1 haddr=0x7ffffffc hwdata=0x00000000 valid=0 error=1 exp_pselx=000
# UVM_INFO testbench.sv(754) @ 3165000: uvm_test_top.env.ahb.monitor [AHB_MON] hsel=1 hwrite=1 htrans=11 hsize=010 hburst=010 hprot=0011 hmastlock=0 hreadyin=1 haddr=0x1ec4a36d hwdata=0x00000000 valid=0 error=1 exp_pselx=000
# UVM_INFO testbench.sv(754) @ 3205000: uvm_test_top.env.ahb.monitor [AHB_MON] hsel=1 hwrite=0 htrans=10 hsize=010 hburst=100 hprot=0011 hmastlock=1 hreadyin=1 haddr=0x824d6dec hwdata=0x00000000 valid=1 error=0 exp_pselx=001
# UVM_INFO testbench.sv(843) @ 3215000: uvm_test_top.env.apb.monitor [APB_MON] phase=APB_SETUP pwrite=0 pselx=001 penable=0 pready=1 pslverr=0 paddr=0x824d6dec pwdata=0x715c90d9 prdata=0xb8029bbd pstrb=0000 pprot=001
# UVM_INFO testbench.sv(843) @ 3225000: uvm_test_top.env.apb.monitor [APB_MON] phase=APB_ENABLE pwrite=0 pselx=001 penable=1 pready=1 pslverr=0 paddr=0x824d6dec pwdata=0x715c90d9 prdata=0xb8029bbd pstrb=0000 pprot=001
# UVM_INFO testbench.sv(754) @ 3265000: uvm_test_top.env.ahb.monitor [AHB_MON] hsel=1 hwrite=0 htrans=11 hsize=010 hburst=101 hprot=1010 hmastlock=0 hreadyin=1 haddr=0x8bfffffc hwdata=0x00000000 valid=1 error=0 exp_pselx=100
# UVM_INFO testbench.sv(843) @ 3275000: uvm_test_top.env.apb.monitor [APB_MON] phase=APB_SETUP pwrite=0 pselx=100 penable=0 pready=1 pslverr=0 paddr=0x8bfffffc pwdata=0x715c90d9 prdata=0xc278ad1d pstrb=0000 pprot=101
# UVM_INFO testbench.sv(843) @ 3285000: uvm_test_top.env.apb.monitor [APB_MON] phase=APB_ENABLE pwrite=0 pselx=100 penable=1 pready=0 pslverr=0 paddr=0x8bfffffc pwdata=0x715c90d9 prdata=0xc278ad1d pstrb=0000 pprot=101
# UVM_INFO testbench.sv(843) @ 3295000: uvm_test_top.env.apb.monitor [APB_MON] phase=APB_ENABLE pwrite=0 pselx=100 penable=1 pready=0 pslverr=0 paddr=0x8bfffffc pwdata=0x715c90d9 prdata=0xc278ad1d pstrb=0000 pprot=101
# UVM_INFO testbench.sv(843) @ 3305000: uvm_test_top.env.apb.monitor [APB_MON] phase=APB_ENABLE pwrite=0 pselx=100 penable=1 pready=1 pslverr=0 paddr=0x8bfffffc pwdata=0x715c90d9 prdata=0xc278ad1d pstrb=0000 pprot=101
# UVM_INFO testbench.sv(710) @ 3365000: uvm_test_top.env.ahb.monitor [AHB_MON] hsel=1 hwrite=1 htrans=11 hsize=010 hburst=010 hprot=0001 hmastlock=0 hreadyin=1 haddr=0x84bdaed0 hwdata=0xe91a2b85 valid=1 error=0 exp_pselx=010
# UVM_INFO testbench.sv(843) @ 3375000: uvm_test_top.env.apb.monitor [APB_MON] phase=APB_SETUP pwrite=1 pselx=010 penable=0 pready=1 pslverr=0 paddr=0x84bdaed0 pwdata=0xe91a2b85 prdata=0x53c33745 pstrb=1111 pprot=000
# UVM_INFO testbench.sv(843) @ 3385000: uvm_test_top.env.apb.monitor [APB_MON] phase=APB_ENABLE pwrite=1 pselx=010 penable=1 pready=1 pslverr=0 paddr=0x84bdaed0 pwdata=0xe91a2b85 prdata=0x53c33745 pstrb=1111 pprot=000
# UVM_INFO testbench.sv(754) @ 3435000: uvm_test_top.env.ahb.monitor [AHB_MON] hsel=1 hwrite=0 htrans=10 hsize=010 hburst=001 hprot=0101 hmastlock=0 hreadyin=1 haddr=0x849b31bc hwdata=0x00000000 valid=1 error=0 exp_pselx=010
# UVM_INFO testbench.sv(843) @ 3445000: uvm_test_top.env.apb.monitor [APB_MON] phase=APB_SETUP pwrite=0 pselx=010 penable=0 pready=1 pslverr=0 paddr=0x849b31bc pwdata=0xe91a2b85 prdata=0x3efd6fc8 pstrb=0000 pprot=000
# UVM_INFO testbench.sv(843) @ 3455000: uvm_test_top.env.apb.monitor [APB_MON] phase=APB_ENABLE pwrite=0 pselx=010 penable=1 pready=0 pslverr=0 paddr=0x849b31bc pwdata=0xe91a2b85 prdata=0x3efd6fc8 pstrb=0000 pprot=000
# UVM_INFO testbench.sv(843) @ 3465000: uvm_test_top.env.apb.monitor [APB_MON] phase=APB_ENABLE pwrite=0 pselx=010 penable=1 pready=0 pslverr=0 paddr=0x849b31bc pwdata=0xe91a2b85 prdata=0x3efd6fc8 pstrb=0000 pprot=000
# UVM_INFO testbench.sv(843) @ 3475000: uvm_test_top.env.apb.monitor [APB_MON] phase=APB_ENABLE pwrite=0 pselx=010 penable=1 pready=1 pslverr=0 paddr=0x849b31bc pwdata=0xe91a2b85 prdata=0x3efd6fc8 pstrb=0000 pprot=000
